{"type": "variety", "content": {"Dialect": "Catalan - Western - Lleida", "Linguistic Classification": "Catalan - Western", "Town": "Lleida", "Region": "Catalonia", "Country": "Spain", "Latitude/Longitude": "41\u00b037'00\"N 0\u00b037'00\"E", "Linguistic Date": "late 19th / early 20th century", "References": "Perea, Maria-Pilar (2005),Dades dialectals. Antoni M. Alcover.Palma de Mallorca: Conselleria d\u2019Educaci\u00f3 i Cultura.Govern de les Illes Balears, CD-ROM edition."}}
{"type": "variety", "content": {"Dialect": "Catalan - Eastern - Central - Barcelon\u00ed", "Linguistic Classification": "Catalan - Eastern - Central - Barcelon\u00ed", "Town": "Barcelona", "Region": "Catalonia", "Country": "Spain", "Latitude/Longitude": "41\u00b022'00\"N 2\u00b010'00\"E", "Linguistic Date": "early to mid 20th century", "References": "Perea, Maria-Pilar (2005),Dades dialectals. Antoni M. Alcover.Palma de Mallorca: Conselleria d\u2019Educaci\u00f3 i Cultura.Govern de les Illes Balears, CD-ROM edition."}}
{"type": "variety", "content": {"Dialect": "Catalan - Eastern - Alguer\u00e8s", "Linguistic Classification": "Catalan - Eastern - Alguer\u00e8s", "Town": "L'Algher /Alghero", "Region": "Sardinia", "Country": "Italy", "Latitude/Longitude": "40\u00b033'28\"N 8\u00b019'19\"E", "Linguistic Date": "late 19th / early 20th century", "References": "Perea, Maria-Pilar (2005),Dades dialectals. Antoni M. Alcover.Palma de Mallorca: Conselleria d\u2019Educaci\u00f3 i Cultura.Govern de les Illes Balears, CD-ROM edition."}}
{"type": "variety", "content": {"Dialect": "Catalan - Eastern - Balear - Mallorqu\u00ed - Palma", "Linguistic Classification": "Catalan - Eastern - Balear - Mallorqu\u00ed", "Town": "Palma", "Region": "Balearic Islands - Majorca", "Country": "Spain", "Latitude/Longitude": "39\u00b034'00\"N 2\u00b039'00\"E", "Linguistic Date": "early to mid 20th century", "References": "Perea, Maria-Pilar (2005),Dades dialectals. Antoni M. Alcover.Palma de Mallorca: Conselleria d\u2019Educaci\u00f3 i Cultura.Govern de les Illes Balears, CD-ROM edition."}}
{"type": "variety", "content": {"Dialect": "Catalan - Eastern - Rossellon\u00e8s - Canet de Rossell\u00f3", "Linguistic Classification": "Catalan - Eastern - Rossellon\u00e8s", "Town": "Canet de Rossell\u00f3 / Canet-en-Roussillon", "Region": "Eastern Pyrenees", "Country": "France", "Latitude/Longitude": "42\u00b042'00\"N 3\u00b000'00\"E", "Linguistic Date": "late 19th / early 20th century", "References": "Perea, Maria-Pilar (2005),Dades dialectals. Antoni M. Alcover.Palma de Mallorca: Conselleria d\u2019Educaci\u00f3 i Cultura.Govern de les Illes Balears, CD-ROM edition."}}
{"type": "variety", "content": {"Dialect": "Friulian", "Linguistic Classification": "Friulian", "Town": "", "Region": "Friuli", "Country": "Italy", "Latitude/Longitude": "46\u00b014'53\"N 13\u00b005'44\"E", "Linguistic Date": "mid to late 20th century", "References": "Zof, Fausto (2000),Gramatiche pratiche de lenghe furlane.Pasian di Prato (Udine): Leonardo.", "Note on Source of data": "The paucity of adequate descriptions of the verb system of individual Friulian varieties has made it necessary to use evidence from the Friulian koin\u00e9, which is what is described in Zof's work."}}
{"type": "variety", "content": {"Dialect": "French - Wallon - Namur", "Linguistic Classification": "French - Wallon", "Town": "Namur", "Region": "Wallonia", "Country": "Belgium", "Latitude/Longitude": "50\u00b027'00\"N 04\u00b051'00\"E", "Linguistic Date": "late 19th / early 20th century", "References": "Niederl\u00e4nder, J.  (1900) Die Mundart von Namur. Zeitschrift f\u00fcr romanische Philologie 24:251-309.", "Note on Imperative": "It appears from Niederl\u00e4nder (1900) that (unless otherwise specified), the form of the 2sg imperative may be assumed to be identical to that of the present indicative singular,and the 1pl and 2pl imperatives to the respectively corresponding forms of the present indicative.", "Note on Imperfect indicative": "Another ending, instead of -\u00f8\u02d0f, in the singular forms, is -\u025b. This latter form is the rarer.", "Note on Romance conditional": "Niederl\u00e4nder (1900) only occasionally specifies the forms of the conditional. The probable inference to be drawn is that the stem of the conditional is identical to that of the future, and that therefore specification of the forms of the conditional is redundant."}}
{"type": "variety", "content": {"Dialect": "French - Poitevin-Saintongeais - Vend\u00e9en", "Linguistic Classification": "French", "Town": "Beauvoir-sur-Mer", "Region": "La Vend\u00e9e", "Country": "France", "Latitude/Longitude": "46\u00b055'01\"N 2\u00b002'29\"W", "Linguistic Date": "mid to late 20th century", "References": "Lars-Owe Svenson 1959 Les parlers du Marais vend\u00e9en, Stockholm: Almqvist & Wiksell"}}
{"type": "variety", "content": {"Dialect": "French \u2013 (Franc-)Comtois - Pierrecourt", "Linguistic Classification": "Gallo-Romance", "Town": "Pierrecourt", "Region": "Haute-Sa\u00f4ne", "Country": "France", "Latitude/Longitude": "47\u00b038\u203240\u2033N 5\u00b035'26\u2033E", "Linguistic Date": "late 19th / early 20th century", "References": "Juret, C. 1917 Morphologie du patois de Pierrecourt (Arr. de Gray, Haute-Sa\u00f4ne). Zeitschrift f\u00fcr romanische Philologie 38:641-662.", "Note on Conditional": "On all available evidence, the stem of the conditional is always identical to that of the future. It is probably for this reason that Juret (1917) often fails to specify the conditional, the implicit expectation being that the reader will be able to derive it from the future. We, however, have only supplied conditionals where we have direct attestations of the conditional stem.", "Note on Imperfect indicative": "As a general (although not exceptionless) rule, the imperfect indicative comprises a lexical root identical to that found in the 1/2pl. present, plus the characteristic endings of the imperfect which are apparently the same for virtually all verbs. It is probably for this reason that a source such as Juret (1917) does not specify the imperfect indicative forms, expecting the reader to infer the correct forms. We, however, have been cautious in specifying the imperfect indicative where we have no direct information.", "Note on Third person plural present indicative": "Juret (1917) indicates that 3pl. present indicative forms in this dialect generally have two forms. One systematically comprises the root found in the 1/2pl. present indicative, combined with the ending -a\u0303\u02d0. The other seems, as a general rule, to be identical to the singular forms of the present subjunctive. However, we have been very cautious in giving 3pl. prs.ind. forms when we lack direct attestations of them."}}
{"type": "variety", "content": {"Dialect": "French - Norman - Jersey", "Linguistic Classification": "French - Norman - Jersey", "Town": "Jersey", "Region": "Channel Islands", "Country": "Jersey", "Latitude/Longitude": "49\u00b011'00\"N 2\u00b006'25\"W", "Linguistic Date": "mid to late 20th century", "References": "Liddicoat, A. 1994. A Grammar of the Norman French of the Channel Islands. Berlin: De Gruyter."}}
{"type": "variety", "content": {"Dialect": "French - Acadian - South-East New Brunswick", "Linguistic Classification": "French - Acadian", "Town": "Moncton & environs", "Region": "New Brunswick", "Country": "Canada", "Latitude/Longitude": "46\u00b025'30\"N 64\u00b049'00\"W", "Linguistic Date": "late 20th century / early 21st century", "References": "P\u00e9ronnet, Louise (1990),Syst\u00e8me des conjugaisons verbales dans le parler acadien du sud-est du Nouveau-Brunswick.Journal of the Atlantic Provinces Linguistic Association / Revue de l\u2019Association de linguistique des provinces atlantiques 12: 81-116."}}
{"type": "variety", "content": {"Dialect": "French - Norman - Guernsey", "Linguistic Classification": "French - Norman - Guernsey", "Town": "", "Region": "Channel Islands", "Country": "Bailiwick of Guernsey", "Latitude/Longitude": "49\u00b027'22\"N 2\u00b032'12\"W", "Linguistic Date": "mid to late 20th century", "References": "De Garis, M. (1985). Guernesiais: a grammatical survey. Guernsey: Soci\u00e9t\u00e9 guernesiaise.", "Note on Transcription": "The transcription is based on an orthographic representation in turn based on French orthography. In a number of places there is room for considerable doubt about the precise value of the orthographic symbols, and our rendering is tentative."}}
{"type": "variety", "content": {"Dialect": "French - Acadian - Pubnico", "Linguistic Classification": "French - Acadian", "Town": "Pubnico", "Region": "Nova Scotia", "Country": "Canada", "Latitude/Longitude": "43\u00b042'09\"N 65\u00b047'01\"W", "Linguistic Date": "", "References": "Gesner 1985", "Note on Subjunctive Forms": "Alongside the distinct subjunctive forms, Gesner (1985:14-15) lists for each verb (except 'be') a series of 'subjunctive' forms which are identical to those of the present indicative.  We have not included these 'syncretic' paradigms here; it seems at least possible that they are genuine indicatives.  The only subjunctive paradigms listed for this variety are those which are clearly subjunctive (even if there is overlap with the indicative)."}}
{"type": "variety", "content": {"Dialect": "French - Picard \u2013 Mesnil-Martinsart", "Linguistic Classification": "French", "Town": "Mesnil-Martinsart", "Region": "Picardy", "Country": "France", "Latitude/Longitude": "50\u00b003'13\"N 2\u00b038'51\"E", "Linguistic Date": "late 19th / early twentieth century", "References": "Flutre, Louis-Fernand 1955 Le parler picard de Mesnil-Martinsart, Geneva: Droz"}}
{"type": "variety", "content": {"Dialect": "French - Lorrain - Ranrupt", "Linguistic Classification": "Gallo-Romance", "Town": "Ranrupt", "Region": "Alsace", "Country": "France", "Latitude/Longitude": "48\u00b022'31\"N 7\u00b011'57\"E", "Linguistic Date": "mid to late 20th century", "References": "Aub-B\u00fcscher, Gertrud 1962 Le parler rural de Ranrupt (Bas-Rhin), Paris: Klincksieck", "Note on Proximal imperfect": "'Proximal imperfect' is our rendering of the French label 'imparfait proche'. The relevant forms express an action or state which held until 'recently'. For further clarification, see Aub-B\u00fcscher (1962:80f.). The origin of this form is unclear to us. Possibly, the formative -o:r which characterizes it derives from a temporal adverb 'or', meaning '(just) now'."}}
{"type": "variety", "content": {"Dialect": "French - Modern Standard", "Linguistic Classification": "French", "Town": "", "Region": "", "Country": "France", "Latitude/Longitude": "48\u00b051'00\"N 2\u00b020'00\"E", "Linguistic Date": "late 20th century / early 21st century", "References": "", "Note on Transcription": "The uvular fricative here given as [\u0281] may also be realized as a uvular trill [\u0280] or an alveolar trill [r].  Schwa ([\u0259]) may be subject to variable deletion.", "Note on Forms": "The preterite is no longer found in the everyday spoken language, but survives in writing and in more formal registers, especially in the third person.  The past subjunctive is rarer, but can still be found in the written language."}}
{"type": "variety", "content": {"Dialect": "Swiss R\u00e6to-Romance - Surselvan", "Linguistic Classification": "Swiss R\u00e6to-Romance - Surselvan", "Town": "", "Region": "Graub\u00fcnden", "Country": "Switzerland", "Latitude/Longitude": "46\u00b041'00\"N 9\u00b008'00\"E", "Linguistic Date": "late 20th to early 21st century", "References": "Spescha, Arnold (1989),Grammatica sursilvana.Cuera [Chur]: Casa editura per mieds d'instrucziun.", "Note on Romansh indirect conditional": "Surselvan is among those Romansh varieties that have created a novel 'indirect conditional form' identical to the continuant of the Latin pluperfect subjunctive, except that it bears the person and number endings of the present subjunctive. While the the continuant of the pluperfect subjunctive now functions primarily as a conditional in main clauses, its 'indirect conditional' counterpart is characteristic of subordinate clauses.", "Note on Romansh indirect imperfect subjunctive": "Surselvan is among those Romansh varieties that have created a novel 'indirect imperfect subjunctive form' identical to the imperfect indicative, except that it bears the person and number endings of the present subjunctive. These verb-forms are characteristic of indirect speech.", "Note on Transcription": "The transcription given here is more than usually an approximation. The reference does offer a broad overview of the verb system, amply confirmed by more localized studies.", "Note on Imperative": "The first person plural imperative is usually expressed via an analytic structure lein + infinitive. The only synthetic verb form functioning as 1pl imperative is identical to the 1pl present subjunctive (see Spescha 1989:\u00a7426)."}}
{"type": "variety", "content": {"Dialect": "Swiss R\u00e6to-Romance - Surmiran - Bivio-Stalla", "Linguistic Classification": "Swiss R\u00e6to-Romance - Surmiran", "Town": "Bivio-Stalla", "Region": "Graub\u00fcnden", "Country": "Switzerland", "Latitude/Longitude": "46\u00b028'00\"N 9\u00b039'00\"E", "Linguistic Date": "late 19th / early 20th century", "References": "Candrian, J. P. (1900),Der Dialekt von Bivio-Stalla.Z\u00fcrich: Halle.", "Note on Future": "The presence of a 'Romance future' is atypical for Surmiran and apparently it does not exist for every verb. See Candrian 1900:48;54.", "Note on ": ""}}
{"type": "variety", "content": {"Dialect": "Spanish - Asturo-Leonese - Asturian - Sudeste de Parres", "Linguistic Classification": "Spanish - Asturo-Leonese - Asturian", "Town": "Parres", "Region": "Principado de Asturias", "Country": "Spain", "Latitude/Longitude": "43\u00b022'00\"N 5\u00b011'00\"W", "Linguistic Date": "mid to late 20th century", "References": "Vallina Alonso, Celestina (1985),El habla del Sudeste de Parres (desde el Sella hasta el Mampodre).Oviedo: Instituto de estudios asturianos."}}
{"type": "variety", "content": {"Dialect": "Spanish - Modern Standard", "Linguistic Classification": "", "Town": "", "Region": "", "Country": "Spain", "Latitude/Longitude": "40\u00b023'46\"N 3\u00b043'00\"W", "Linguistic Date": "late 20th to early 21st century", "References": "", "Note on The continuant of the Latin future perfect/perfect subjunctive": "The assumed continuant of the Latin future perfect / perfect subjunctive, the Spanish tense-form known as the 'future subjunctive', is archaic and obsolescent in the modern language."}}
{"type": "variety", "content": {"Dialect": "Swiss R\u00e6to-Romance - Puter - Engadine (Upper)", "Linguistic Classification": "Swiss R\u00e6to-Romance - Puter", "Town": "", "Region": "Grischun", "Country": "Switzerland", "Latitude/Longitude": "46\u00b030'00\"N 9\u00b049'00\"E", "Linguistic Date": "mid to late 20th century", "References": "Scheitlin, Walter (1980),Il pled puter. Grammatica ladina d'Engiadin'ota cun lecziuns e register da pleds / Grammatik in Puter (Oberengadin) mit Lektionen und W\u00f6rterverzeichnis.Samedan: Uniun dals Grischs.", "Note on Second Romance future": "This variety has a 'second' form of the Romance future. The Romance future comprises, historically, the infinitive followed by present indicative forms of the the verb HABERE have. The Second Romance future appears to have been composed in the same way, except that the present subjunctive forms of HABERE are used. According to Scheitlin (1980:81), what we call the 'Second Romance future' is used to indicate 'uncertainty', a 'wish', or 'intention'."}}
{"type": "variety", "content": {"Dialect": "Spanish - Asturo-Leonese - Asturian - Somiedo", "Linguistic Classification": "Spanish - Asturo-Leonese - Asturian", "Town": "Somiedo", "Region": "Principado de Asturias", "Country": "Spain", "Latitude/Longitude": "43\u00b006'00\"N 6\u00b015'00\"W", "Linguistic Date": "mid to late 20th century", "References": "Cano Gonz\u00e1lez, Ana M. (1981),El habla de Somiedo (Occidente de Asturias).Santiago de Compostela: Universidade de Santiago de Compostela."}}
{"type": "variety", "content": {"Dialect": "Spanish - Aragonese - Panticosa", "Linguistic Classification": "Spanish - Aragonese", "Town": "Panticosa", "Region": "Arag\u00f3n", "Country": "Spain", "Latitude/Longitude": "42\u00b043'27\"N 0\u00b017'4\"E", "Linguistic Date": "mid to late 20th century", "References": "Nagore Lain, Francho (1986),El aragon\u00e9s de Panticosa: gram\u00e1tica.Huesca: Instituto de Estudios Altoaragoneses."}}
{"type": "variety", "content": {"Dialect": "Spanish - Aragonese - Ansotano", "Linguistic Classification": "Spanish - Aragonese", "Town": "Ans\u00f3, Fago", "Region": "Arag\u00f3n", "Country": "Spain", "Latitude/Longitude": "42\u00b045'00\"N 0\u00b049'00\"E", "Linguistic Date": "late 20th to early 21st century", "References": "Barcos, Miguel \u00c1nchel (2007),El aragon\u00e9s ansotano. Estudio ling\u00fc\u00edstico de Ans\u00f3 y Fago.Zaragoza, Gara d'Edizion - Instituci\u00f3n \u00abFernando el Cat\u00f3lico\u00bb"}}
{"type": "variety", "content": {"Dialect": "Sardinian - Sassarese", "Linguistic Classification": "", "Town": "", "Region": "Sardinia", "Country": "Italy", "Latitude/Longitude": "40\u00b043'36\"N 8\u00b033'33\"E", "Linguistic Date": "late 20th to early 21st century", "References": "Bazzoni, Gian Paolo (1999),Elementi di grammatica sassarese.Sassari: SIG."}}
{"type": "variety", "content": {"Dialect": "Sardinian - Nuorese", "Linguistic Classification": "Sardinian - Nuorese", "Town": "", "Region": "Sardinia", "Country": "Italy", "Latitude/Longitude": "40\u00b019'0\"N 9\u00b020'0\"E", "Linguistic Date": "mid to late 20th century", "References": "Pittau, Massimo (1972)Grammatica del sardo-nuorese, il pi\u00f9 conservativo dei parlari neolatini.Bologna: P\u00e0tron."}}
{"type": "variety", "content": {"Dialect": "Sardinian - Logudorese", "Linguistic Classification": "Sardinian - Logudorese", "Town": "", "Region": "Sardinia", "Country": "Italy", "Latitude/Longitude": "40\u00b034'0\"N 9\u00b00'0\"E", "Linguistic Date": "late 20th to early 21st century", "References": "Pittau, Massimo (1991),Grammatica della lingua sarda: variet\u00e0 logudorese.Sassari: C. Delfino", "Note on The Preterite": "The preterite is rarely used and mainly found in the literary language."}}
{"type": "variety", "content": {"Dialect": "Sardinian - Gallurese", "Linguistic Classification": "Sardinian - Gallurese", "Town": "", "Region": "Sardinia", "Country": "Italy", "Latitude/Longitude": "40\u00b054'0\"N 9\u00b06'0\"E", "Linguistic Date": "mid to late 20th century", "References": "Corda, Francesco (1983),Saggio di grammatica gallurese.Cagliari: 3T."}}
{"type": "variety", "content": {"Dialect": "Sardinian - Campidanese", "Linguistic Classification": "Sardinian - Campidanese", "Town": "", "Region": "Sardinia", "Country": "Italy", "Latitude/Longitude": "39\u00b013'0\"N 9\u00b07'0\"E", "Linguistic Date": "late 20th to early 21st century", "References": "Lepori, Antonio (2001),Gram\u00e0tica sarda po is campadinesus.Quartu Sant\u2019Elena: Edizioni C.R.", "Note on Close and open mid-vowels": "The metaphonetic mid-vowel alternation in this variety is no longer predictable. For this reason, all mid vowels are here represented as open."}}
{"type": "variety", "content": {"Dialect": "Romanian - Megleno-Romanian", "Linguistic Classification": "Romanian - Megleno-Romanianian", "Town": "", "Region": "Greece and FYROM", "Country": "", "Latitude/Longitude": "41\u00b004'12\"N 22\u00b021'40\"E", "Linguistic Date": "early to mid 20th century", "References": "Capidan, Theodor (1932),Arom\u00e2nii. Dialectul arom\u00e2n: studiu lingvistic.Bucure\u015fti: Academia Rom\u00e2n\u0103.", "Note on Varieties described": "Capidan's survey is to some extent a generalization over all the Megleno-Romanian varieties of the Greek-Macedonian border area, although attention is paid to local variants. See further Atanasov (2002:6f.)."}}
{"type": "variety", "content": {"Dialect": "Romanian - Modern Standard", "Linguistic Classification": "Romanian - Daco-Romanian", "Town": "", "Region": "", "Country": "Romania", "Latitude/Longitude": "44\u00b026'8\"N 26\u00b05'46\"E", "Linguistic Date": "Twenty-first century", "References": "", "Note on Imperative first person plural": "Forms are given here for the 1PL imperative of all verbs. While these are indeed the morphological forms used in the expression of the imperative, they are forms of the (present) subjunctive, and are preceded by the subjunctive marking particle s\u0103.", "Note on Supine": "Romanian grammars recognize a 'supine', a nominal form possessed by every verb and always identical in form to the (masculine singular) of the past participle. The form listed here as 'Past participle' is also the 'supine'.", "Note on Long infinitive": "The Latin infinitive bifurcates in Romanian into a 'short' form (here given as 'Infinitive') and a 'long' form characterized by the ending -re. All verbs have both kinds of infinitive. The latter is a (feminine) verbal noun semantically identical to the corresponding verb.", "Note on ": ""}}
{"type": "variety", "content": {"Dialect": "Romanian - Istro-Romanian - \u0160u\u0161njevica", "Linguistic Classification": "Romanian - Istro-Romanian", "Town": "\u0160u\u0161njevica / Valdarsa", "Region": "Istria", "Country": "Croatia", "Latitude/Longitude": "45\u00b010'00\"N 14\u00b008'00\"E", "Linguistic Date": "late 19th / early 20th century", "References": "Pu\u015fcariu, Sextil (1926),Studii istrorom\u00e2ne.Vol II.Bucure\u015fti: Cultura na\u0163ional\u0103.", "Note on Source": "Pu\u0219cariu (1926) remains the most comprehensive description of the Istro-Romanian verb, based on the testimony of his friend Luigi (Alois) Belulovici, a native of \u0160u\u0161njevica.", "Note on Subjunctive": "We give a full set of forms for the present subjunctive even though in Istro-Romanian the relevant forms are always identical to those of the present indicative, with the sole exception of the reflex of ESSE/FIERI 'to be'.", "Note on Aspect": "We have not presented here an important distinctive characteristic of the Istro-Romanian verb, namely the fact that it possesses a fully fledged system of aspect distinctions (principally imperfective vs perfective) modelled on that of Croatian. For this see, in particular, Hurren (1968), Kova\u010dec (1971:123-30). The distinction is sometimes marked by lexically suppletive forms, sometimes by addition of  an affix to the imperfective as a way of forming the perfective, sometimes by membership of distinct conjugational classes."}}
{"type": "variety", "content": {"Dialect": "Romanian - Aromanian", "Linguistic Classification": "Romanian - Aromanian", "Town": "", "Region": "Greece, Albania, FYROM, Romania", "Country": "", "Latitude/Longitude": "40\u00b000'00\"N 20\u00b045'00\"E", "Linguistic Date": "late 20th to early 21st century", "References": "Caragiu-Mario\u0163eanu, Matilda & Saramandu, Nicolae (2005),Manual de arom\u00e2n\u0103. Carti tr\u00e2 \u00eenvi\u0163ari arm\u00e2nea\u015ftiBucure\u015fti: Editura Academiei Rom\u00e2ne.", "Note on Sources": "There are no sources allowing a comprehensive presentation of Aromanian verb morphology. In addition to the main reference, we have also taken account of of Caragiu-Mario\u021beanu, M. (1968) Fono-morfologie arom\u00e2n\u0103, Bucharest:  Editura Academiei, and Nevaci, M. (2006) Verbul \u00een arom\u00e2na. Structura \u0219i valori. Bucharest: Editura Academiei. We are grateful also to Prof. Nicolae Saramandu for additional information.", "Note on Past participle": "The form of the past participle given here is the feminine singular. This is because in analytic verb constructions the form used is that of the feminine singular. Used as an adjective (and in passive constructions) the past participle agrees with the subject in number and gender, and has a masculine singular form in -u, which may also differ from the feminine singular in respect of the root vowel.", "Note on Preterite": "In many Aromanian varieties, the 2sg has the ending -\u0283i, and the 2pl the  ending -tu. See discussion in Maiden, M. (2009). \u2018Despre -te \u0219i -t(u): cu privire la istoria unor desinen\u021be de persoana a doua plural \u00een limbile romanice estice.\u2019 In S. Reinheimer R\u00eepeanu and I. Vintil\u0103 R\u0103dulescu (eds), Limba rom\u00e2n\u0103, limba romanic\u0103. Omagiu acad. Marius Sala \u00een \u00eemplinirea a 75 de ani. Bucharest: Editura Acedmiei, pp. 303-11."}}
{"type": "variety", "content": {"Dialect": "Occitan - Southern - Languedocien - Graulhet", "Linguistic Classification": "Occitan - Southern - Languedocien", "Town": "Graulhet", "Region": "Tarn", "Country": "France", "Latitude/Longitude": "43\u00b045'42\"N 1\u00b059'21\"E", "Linguistic Date": "late 20th early 21st century", "References": "Lieutard, Herv\u00e9 (2004) Phonologie et morphologie du parler occitan de Graulhet (Tarn). Montpellier: CEO - Universit\u00e9 Paul-Val\u00e9ry - Montepellier III."}}
{"type": "variety", "content": {"Dialect": "Occitan - Southern - Proven\u00e7al - Nice", "Linguistic Classification": "Occitan - Southern - Proven\u00e7al - Nice", "Town": "Nice", "Region": "Alpes Maritimes", "Country": "France", "Latitude/Longitude": "43\u00b042'12\"N 7\u00b015'59\"E", "Linguistic Date": "late 20th century", "References": "Toscano, R. 1998. Gram\u00e0tica ni\u00e7arda. Nice: Princi N\u00e8guer."}}
{"type": "variety", "content": {"Dialect": "Occitan - Northern - Vivaro-Alpin - Seyne", "Linguistic Classification": "Occitan - Northern - Vivaro-Alpin", "Town": "Seyne", "Region": "Alpes de Haute Provence", "Country": "France", "Latitude/Longitude": "44\u00b021'05\"N 6\u00b021'25\"E", "Linguistic Date": "late 20th centruy", "References": "Quint, Nicolas. 1998. Le Parler occitan alpin du Pays de Seyne. Paris: L'Harmattan.", "Note on Third person plural": "There appears to be considerable variation in the third person plural endings of the present indicative and present subjunctive. There is -en or -un (with varying degrees of nasalization of the vowel). The future seems usually to have -a\u0303, but also -o\u0303 in some cases.", "Note on Preterite": "There seems to be some variation between -\u025br- and -er- in the endings of this tense-form.", "Note on Imperfect indicative and conditional": "There seems to be some variation between the formatives *'ie and *'je (sometimes 'j\u025b) in the  endings.", "Note on Romance future": "It appears that there is variation between 'as and 'a, on the one hand, and 'es and 'e, on the other, as 2SG and 3SG endings."}}
{"type": "variety", "content": {"Dialect": "Italian - Southern I - Pugliese - Dauno-A - Lucera", "Linguistic Classification": "Italian - Southern I - Pugliese - Dauno-A", "Town": "Lucera", "Region": "Puglia", "Country": "Italy", "Latitude/Longitude": "41\u00b030'0\"N 15\u00b020'0\"E", "Linguistic Date": "early to mid 20th century", "References": "Piccolo, Francesco (1939),Il dialetto di Lucera (Foggia).L'Italia Dialettale 15: 83-100."}}
{"type": "variety", "content": {"Dialect": "Italian - Southern II - Sicilian - Central - Mussomeli", "Linguistic Classification": "Italian - Southern II - Sicilian - Central", "Town": "Mussomeli", "Region": "Sicily", "Country": "Italy", "Latitude/Longitude": "37\u00b035'0\"N 13\u00b045'0\"E", "Linguistic Date": "late 20th to early 21st century", "References": "Native informants"}}
{"type": "variety", "content": {"Dialect": "Occitan - Northern - Limousin - Saint-Augustin", "Linguistic Classification": "Occitan - Northern - Limousin - Saint-Augustin", "Town": "Saint-Augustin", "Region": "Limousin", "Country": "France", "Latitude/Longitude": "45\u00b025\u203230\u2033N 1\u00b050\u203219\u2033E", "Linguistic Date": "late 20th century", "References": "Monteil, P. (1997) Le Parler de Saint-Augustin. Description linguistique d'un micro-dialecte de Corr\u00e8ze. Limoges: PULIM."}}
{"type": "variety", "content": {"Dialect": "Occitan - Northern - Auvergnat - Gartempe", "Linguistic Classification": "Occitan - Northern - Auvergnat", "Town": "Gartempe (Creuse)", "Region": "Limousin", "Country": "France", "Latitude/Longitude": "46\u00b009'03\"N 1\u00b044'19\"E", "Linguistic Date": "late 20th to early 21st century", "References": "Quint, Nicolas (1996) Grammaire du parler occitan nord-limousin marchois de Gartempe et de Saint-Sylvain-Montaigut (Creuse). Etude phon\u00e9tique, morphologique et lexicale. Limoges: La Clau lemosina."}}
{"type": "variety", "content": {"Dialect": "Ladin- Dolomitic - Atesino - Val Badia", "Linguistic Classification": "Ladin- Dolomitic - Atesino", "Town": "", "Region": "Alto Adige", "Country": "Italy", "Latitude/Longitude": "46\u00b035'0\"N 11\u00b054'0\"E", "Linguistic Date": "mid to late 20th century", "References": "Alton, J. B. & Vittur, Franz (1968),L ladin dla Val Badia: Beitrag zu einer Grammatik des Dolomitenladinischen.Brixen: A. Weger"}}
{"type": "variety", "content": {"Dialect": "Ladin- Dolomitic - Atesino - Val Gardena", "Linguistic Classification": "Ladin- Dolomitic - Atesino", "Town": "", "Region": "Alto Adige", "Country": "Italy", "Latitude/Longitude": "46\u00b036'0\"N 11\u00b032'0\"E", "Linguistic Date": "mid to late 20th century", "References": "Minach, Ferruccio & Gruber, Teresa (1972),La rujneda de Gherd\u00ebina : saggio per una grammatica ladina.Urtij\u00ebi : Union di Ladins.", "Note on Transcription": "The source uses an orthography for Ladin which is some way short of being entirely phonemic. We have paid careful attention to the notes on spelling and prounciation in Minach and Gruber 1972 to arrive at the transcription offered here."}}
{"type": "variety", "content": {"Dialect": "Italian - Southern I - Lucano - Central - Calvello", "Linguistic Classification": "Italian - Southern I - Lucano - Central", "Town": "Calvello", "Region": "Basilicata", "Country": "Italy", "Latitude/Longitude": "40\u00b029'0\"N 15\u00b051'0\"E", "Linguistic Date": "mid to late 20th century", "References": "Gioscio, Joseph (1985),Il dialetto lucano di Calvello.Stuttgart: Steiner.", "Note on Imperative.": "The source does not make explicit how the 1PL imperative is formed. It is probably identical with the 1PL present indicative (cf. Rohlfs 1968:354).", "Note on First person singular present indicative.": "The source alludes to a considerable number of verbs which display a velar (/k/, or /g/ after a nasal) in this cell. The full paradigms for the relevant verbs are not, however, indicated. The examples given are \u02c8\u0283eng\u0259 (DESCENDERE 'go down') vs 3sg.prs.ind \u02c8\u0283enn\u0259; \u02c8meng\u0259 (MINARI 'beat') vs 3sg.prs.ind \u02c8men\u0259; \u02c8vek\u0259 (UIDERE 'see') vs 3sg.prs.ind \u02c8ver\u0259;\u02c8v\u025bng\u0259 (UENIRE 'come') vs 3sg.prs.ind v\u025bn\u0259).", "Note on Continuant of Romance pluperfect indicative.": "This is generally absent, but the source alludes to its persistence in parts, at least, of a handful of verbs, among them HABERE, POSSE, STARE, UELLE. In the case of HABERE, the relevant forms are apparently only found when the verb is used as a future auxiliary.", "Note on Romance conditional.": "The source indicates a remnant of such forms in the continuant of UELLE.", "Note on Past participle": "The source alludes to a number of root-stressed past participles, without giving the full paradigm for the relevant verbs. Virtually all of these have alternative 'regular' past participles in -\u02c8ut\u0259. The examples given are ap\u02c8pis\u0259 (APPENDERE 'hang') or app\u0259\u02c8nut\u0259;\u02c8p\u025brs\u0259 (PERDERE 'lose') or p\u0259\u02c8rdut\u0259; \u02c8\u0283is\u0259 (DECENDERE 'go down') or \u0283\u0259n\u02c8nut\u0259; \u02c8skus\u0259 (ABSCONDERE 'hide') or skun\u02c8nut\u0259; a\u02c8pjert\u0259 (APERIRE 'hide') or apr\u02c8ut\u0259; \u02c8l\u025btt\u0259 (LEGERE 'read') or l\u0259d\u02c8\u02a4ut\u0259; \u02c8spind\u0259 (EX + PINGERE 'push') or sp\u0259n\u02c8\u02a4ut\u0259; \u02c8cwopp\u0259t\u0259 (PLUERE 'rain') or cu\u02c8vut\u0259; \u02c8vipp\u0259t\u0259 (BIBERE 'drink') or v\u0259\u02c8vut\u0259).  The following appear to lack alternatives in -\u02c8ut\u0259: \u02c8kw\u0254tt\u0259 (COQUERE 'cook'); \u02c8fritt\u0259 (FRIGERE 'fry'); \u02c8strutt\u0259 (STRUERE 'use up');\u02c8rutt\u0259 (RUMPERE 'break'); cus\u0259 (CLAUDERE 'close')."}}
{"type": "variety", "content": {"Dialect": "Italian - Southern I - Molisano - Casacalenda", "Linguistic Classification": "Italian - Southern I - Molisano", "Town": "Casacalenda", "Region": "Molise", "Country": "Italy", "Latitude/Longitude": "41\u00b044'0\"N 14\u00b051'0\"E", "Linguistic Date": "late 20th to early 21st century", "References": "Vincelli, Antonio (1995),Grammatica descrittiva del dialetto di Casacalenda.Campobasso: Edizioni Enne.", "Note on Preterite": "The source shows no sign of the preterite, which is presumably extinct here.", "Note on Present subjunctive": "The source indicates that the present subjunctive is generally extinct, save in certain fixed expressions for reflexes of ESSE, UELLE and HABERE, and in the reflex of POSSE.", "Note on Conditional": "Both continuants of the Latin pluperfect indicative and of the Romance conditional are generally given as conditionals, although no form of the latter is given for the 2SG, and none of the former for the 1PL and 2PL."}}
{"type": "variety", "content": {"Dialect": "Italian - Southern I - Lucano - Calabria - Papasidero", "Linguistic Classification": "Italian - Southern I - Lucano - Calabria", "Town": "Papasidero", "Region": "Calabria", "Country": "Italy", "Latitude/Longitude": "39\u00b052'0\"N 14\u00b054'0\"E", "Linguistic Date": "mid to late 20th century", "References": "Rensch, Karl-Heinz (1964),Beitr\u00e4ge zur Kenntnis nordkalabrischer Mundarten.M\u00fcnster Westfalen: Aschendorff."}}
{"type": "variety", "content": {"Dialect": "Italian - Southern I - Lucano - 'Archaic' - Nova Siri", "Linguistic Classification": "Italian - Southern I - Lucano - 'Archaic'", "Town": "Nova Siri", "Region": "Basilicata", "Country": "Italy", "Latitude/Longitude": "40\u00b009'0\"N 16\u00b032'0\"E", "Linguistic Date": "early to mid 20th century", "References": "Lausberg, Heinrich (1939),Die Mundarten S\u00fcdlukaniens.Halle (Saale): M. Niemeyer."}}
{"type": "variety", "content": {"Dialect": "Italian - Northern II - Veneto - Northern - Alpago", "Linguistic Classification": "Italian - Northern II - Veneto - Northern", "Town": "", "Region": "Veneto", "Country": "Italy", "Latitude/Longitude": "46\u00b09'0\"N 12\u00b022'0\"E", "Linguistic Date": "late 20th to early 21st century", "References": "Z\u00f6rner, Lotte (1997),Il pagotto. Dialetto dell\u2019Alpago: descrizione fonologica, storico-fonetica e morfologica.Padova: Unipress.", "Note on First person plural": "The 1PL forms of the imperfect indicative, continuant of Latin pluperfect subjunctive and Romance conditionals continue Latin 3rd person singular forms; they are preceded in actual usage by a third person reflexive clitic pronoun."}}
{"type": "variety", "content": {"Dialect": "Italian - Northern II - Veneto - Istrioto - Valle d'Istria", "Linguistic Classification": "Italian - Northern II - Veneto - Istrioto", "Town": "Valle d'Istria", "Region": "Istria", "Country": "Croatia", "Latitude/Longitude": "45\u00b002'00\"N 13\u00b047'00\"E", "Linguistic Date": "mid to late 20th century", "References": "Cernecca, Domenico (1974),Morfologia del dialetto di Valle d\u2019Istria: il verbo e  l\u2019avverbio.Studia romanica et anglica zagabriensia 37: 205-246."}}
{"type": "variety", "content": {"Dialect": "Italian - Northern I - Lombard - Cremonese", "Linguistic Classification": "Italian - Northern I - Lombard", "Town": "Cremona", "Region": "Lombardy", "Country": "Italy", "Latitude/Longitude": "45\u00b08'0\"N 10\u00b02'0\"E", "Linguistic Date": "mid to late 20th century", "References": "Rossini, Giorgio (1975),Capitoli di morfologia e sintassi del dialetto cremonese.Firenze: La Nuova Italia.", "Note on Gerund and Present Participle": "This dialect does not have specific forms for the gerund."}}
{"type": "variety", "content": {"Dialect": "Italian - Northern I - Piedmontese - Cairo Montenotte", "Linguistic Classification": "Italian - Northern I - Piedmontese", "Town": "Cairo Montenotte", "Region": "Liguria", "Country": "Italy", "Latitude/Longitude": "44\u00b023'52\"N 8\u00b016'41\"E", "Linguistic Date": "late 20th to early 21st century", "References": "Parry, Mair (2005),Parluma \u2018d C\u00f2iri: sociolinguistica e grammatica del dialetto di Cairo Montenotte.Savona: Societ\u00e0 savonese di Storia Patria."}}
{"type": "variety", "content": {"Dialect": "Italian - Northern I - Piedmontese - Basso - Cascinagrossa", "Linguistic Classification": "Italian - Northern I - Piedmontese - Basso", "Town": "Cascinagrossa", "Region": "Piedmont", "Country": "Italy", "Latitude/Longitude": "44\u00b052'43\"N 8\u00b043'13\"E", "Linguistic Date": "late 20th to early 21st century", "References": "Castellani, Franco Elia (2002),Grammatica del dialetto di Cascinagrossa.Alessandria: Edizioni dell'Orso."}}
{"type": "variety", "content": {"Dialect": "Italian - Northern I - Lombard - Alpine - Val Calanca", "Linguistic Classification": "Italian - Northern I - Lombard - Alpine", "Town": "Val Calanca", "Region": "Ticino", "Country": "Switzerland", "Latitude/Longitude": "46\u00b020'00\"N 9\u00b007'00\"E", "Linguistic Date": "mid to late 20th century", "References": "Urech, Jacob (1946),Beitrag zur Kenntnis der Mundart der Val Calanca.Biel: Graphische Anstalt Sch\u00fcler.", "Note on Imperfect Subjunctive": "The imperfect subjunctive is formed periphrastically with the imperfect subjunctive of the verb 'have' or 'be' + DA + infinitive."}}
{"type": "variety", "content": {"Dialect": "Italian - Northern I - Ligurian - Genoese", "Linguistic Classification": "Italian - Northern I - Ligurian", "Town": "Genova", "Region": "Liguria", "Country": "Italy", "Latitude/Longitude": "44\u00b024'40\"N 8\u00b055'57\"E", "Linguistic Date": "late 20th to early 21st century", "References": "Toso, Fiorenzo (1997),Grammatica genovese: variet\u00e0 urbana e di koin\u00e8.Recco (Genova): Le mani."}}
{"type": "variety", "content": {"Dialect": "Italian - Northern I - Emilian - Travo", "Linguistic Classification": "Italian - Northern I - Emilian", "Town": "Travo", "Region": "Emilia", "Country": "Italy", "Latitude/Longitude": "44\u00b052'0\"N 9\u00b033'0\"E", "Linguistic Date": "mid to late 20th century", "References": "Z\u00f6rner, Lotte (1989),Die Dialekte von Travo und Groppallo. Diachrone und synchrone Studien zum Piacentinischen.Wien: Verlag der \u00d6sterreichischen Akademie der Wissenschaften."}}
{"type": "variety", "content": {"Dialect": "Italian - Northern I - Emilian - Romagnol - Lugo", "Linguistic Classification": "Italian - Northern I - Emilian - Romagnol", "Town": "Lugo", "Region": "Emilia Romagna", "Country": "Italy", "Latitude/Longitude": "44\u00b025'0\"N 11\u00b055'0\"E", "Linguistic Date": "mid to late 20th century", "References": "Pelliciardi, Fernando (1977),Grammatica del dialetto romagnolo.Ravenna: Longo."}}
{"type": "variety", "content": {"Dialect": "Italian - Central - Tuscan - Corsican - Sisco", "Linguistic Classification": "Italian - Central - Tuscan - Corsican", "Town": "Sisco", "Region": "Corsica", "Country": "France", "Latitude/Longitude": "42\u00b049'01\"N 9\u00b026'12\"E", "Linguistic Date": "mid to late 20th century", "References": "Chiodi Tischer, Ute (1981),Die Mundart von Sisco (Korsika).Frankfurt: Lang."}}
{"type": "variety", "content": {"Dialect": "Italian - Central - Modern Standard", "Linguistic Classification": "Italian - Central - Tuscan", "Town": "", "Region": "Tuscany", "Country": "Italy", "Latitude/Longitude": "43\u00b046'17\"N 11\u00b015'15\"E", "Linguistic Date": "late 20th to early 21st century", "References": ""}}
{"type": "variety", "content": {"Dialect": "Italian - Central - Marchigiano - Servigliano", "Linguistic Classification": "Italian - Central - Marchigiano - Macerata", "Town": "Servigliano", "Region": "Marche", "Country": "Italy", "Latitude/Longitude": "43\u00b04'51\"N 13\u00b029'31\"E", "Linguistic Date": "early to mid 20th century", "References": "Camilli, Amerindo (1929),Il dialetto di Servigliano (Ascoli Piceno).Archivum Romanicum 13: 220-271."}}
{"type": "variety", "content": {"Dialect": "Italian - Central - Marchigiano - Macerata", "Linguistic Classification": "Italian - Central - Marchigiano", "Town": "Macerata", "Region": "Marche", "Country": "Italy", "Latitude/Longitude": "43\u00b016'53\"N 13\u00b027'34\"E", "Linguistic Date": "late 20th to early 21st century", "References": "Native informants"}}
{"type": "variety", "content": {"Dialect": "Galego-Portuguese - Portuguese", "Linguistic Classification": "Galego-Portuguese - Portuguese", "Town": "", "Region": "", "Country": "Portugal", "Latitude/Longitude": "38\u00b042'00\"N 9\u00b011'00\"W", "Linguistic Date": "late 20th to early 21st century", "References": "", "Note on Inflected infinitive": "It is often suggested that the 'inflected infinitive' is a continuant of the Latin imperfect subjunctive. The issue is a controversial one: T. Maurer (O infinito flexionado portugu\u00eas, S\u00e3o Paulo: Editora Nacional, 1968) gives a critical survey of the arguments for this view, and argues against it. From a purely morphological point of view it must be said that is not impossible that this set of forms continues the Latin imperfect subjunctive, but we have preferred to take a 'neutral' stance by labelling it 'Portuguese inflected infinitive'.", "Note on Future and conditional": "In (literary) modern European Portuguese the future and conditional tense-forms optionally display 'mesoclisis', that is the presence of a clitic pronoun inside the word-form. In such cases the clitic immediately precedes the endings -\u0250j, -a\u0283, -a, -emu\u0283, -\u0250j\u0283, -\u0250\u0303u\u0303 (for the future) and -i\u0250, -i\u0250\u0283, -i\u0250, -i\u0250mu\u0283, -i\u0250j\u0283, -i\u0250\u0303u\u0303 (for the conditional). The portion of the verb-form to the left of the clitic, in this case, is identical to the infinitive (and constitutes an independent phonological word), with the exception of the reflexes of DICERE and FACERE, where the relevant form is dir- and far-. Where the clitic is a third person direct object form, or a first person plural object form, the /r/ characteristic of the future and conditional is (apparently) absent (what is involved is in fact a process of sandhi arising in combination with the clitic, the details of which we cannot pursue here).  For example, for the reflex of FACERE,  for normal f\u0250\u02c8\u027ea, f\u0250\u02c8\u027ei\u0250 (3sg future and conditional), we find falu\u02c8a, falu\u02c8i\u0250 (cf. infinitive f\u0250\u02c8ze\u027e), with a mesoclitic third person singular masculine pronoun."}}
{"type": "variety", "content": {"Dialect": "Italian - Central - Laziale - North-central - Ascrea", "Linguistic Classification": "Italian - Central - Laziale - North-central", "Town": "Ascrea", "Region": "Lazio", "Country": "Italy", "Latitude/Longitude": "42\u00b011'49\"N 12\u00b059'51\"E", "Linguistic Date": "early to mid 20th century", "References": "Fanti, Renata (1939),Note fonetiche e morfologiche sul dialetto di Ascrea.L'Italia Dialettale 15: 111-133.", "Note on Imperfect indicative": "First conjugation verbs have alternative 1SG and 3SG endings -\u02c8ai and -\u02c8\u0254ne", "Note on Imperative": "We lack information on how the 1PL imperative is formed. It is probably identical with the 1PL present indicative (cf. Rohlfs 1968:354)."}}
{"type": "variety", "content": {"Dialect": "Galego-Portuguese - Galician - Xermade", "Linguistic Classification": "Galego-Portuguese - Galician", "Town": "Xermade", "Region": "Galicia", "Country": "Spain", "Latitude/Longitude": "43\u00b018'00\"N 7\u00b040'00\"W", "Linguistic Date": "mid to late 20th century", "References": "ALGa (1990),Atlas ling\u00fc\u00edstico galego / Instituto da Lingua Galega; directores: Constantino Garc\u00eda, Ant\u00f3n Santamarina.La Coru\u00f1a: Fundaci\u00f3n Pedro Barri\u00e9 de la Maza, Conde de Fenosa.", "Note on Inflected Infinitive": "The inflected infinitive (see Galego-Portuguese - Portuguese for notes on the cognate form in Portuguese) has the same endings for all verbs, but only the forms for the reflexes of CANTARE are provided."}}
{"type": "variety", "content": {"Dialect": "Galego-Portuguese - Galician - Lubi\u00e1n", "Linguistic Classification": "Galego-Portuguese - Galician", "Town": "Lubi\u00e1n", "Region": "Castilla-Leon", "Country": "Spain", "Latitude/Longitude": "42\u00b002'06\"N 6\u00b054'25\"W", "Linguistic Date": "mid to late 20th century", "References": "ALGa (1990),Atlas ling\u00fc\u00edstico galego / Instituto da Lingua Galega; directores: Constantino Garc\u00eda, Ant\u00f3n Santamarina.La Coru\u00f1a: Fundaci\u00f3n Pedro Barri\u00e9 de la Maza, Conde de Fenosa.", "Note on Inflected Infinitive": "No data are available for this dialect."}}
{"type": "variety", "content": {"Dialect": "Galego-Portuguese - Galician - Fisterra", "Linguistic Classification": "Galego-Portuguese - Galician", "Town": "Fisterra / Finisterra", "Region": "Galicia", "Country": "Spain", "Latitude/Longitude": "42\u00b054'00\"N 9\u00b015'00\"W", "Linguistic Date": "mid to late 20th century", "References": "ALGa (1990),Atlas ling\u00fc\u00edstico galego / Instituto da Lingua Galega; directores: Constantino Garc\u00eda, Ant\u00f3n Santamarina.La Coru\u00f1a: Fundaci\u00f3n Pedro Barri\u00e9 de la Maza, Conde de Fenosa.", "Note on Inflected infinitive": "The inflected infinitive (see Galego-Portuguese - Portuguese for notes on the cognate form in Portuguese) has the same endings for all verbs, but only the forms for the reflexes of CANTARE are provided."}}
{"type": "variety", "content": {"Dialect": "Galego-Portuguese - Galician - Dodro", "Linguistic Classification": "Galego-Portuguese - Galician", "Town": "Dodro", "Region": "Galicia", "Country": "Spain", "Latitude/Longitude": "42\u00b043'03\"N 8\u00b042'53\"W", "Linguistic Date": "mid to late 20th century", "References": "ALGa (1990),Atlas ling\u00fc\u00edstico galego / Instituto da Lingua Galega; directores: Constantino Garc\u00eda, Ant\u00f3n Santamarina.La Coru\u00f1a: Fundaci\u00f3n Pedro Barri\u00e9 de la Maza, Conde de Fenosa.", "Note on Galician 'inflected infinitive'": "The inflected infinitive (see Galego-Portuguese - Portuguese for notes on the cognate form in Portuguese) has the same endings for all verbs, but only the forms for the reflexes of CANTARE are provided."}}
{"type": "variety", "content": {"Dialect": "Galego-Portuguese - Galician - Vilanova de Oscos", "Linguistic Classification": "Galego-Portuguese - Galician", "Town": "Vilanova de Oscos", "Region": "Asturias", "Country": "Spain", "Latitude/Longitude": "43\u00b018'00\"N 6\u00b058'60\"W", "Linguistic Date": "mid to late 20th century", "References": "ALGa (1990),Atlas ling\u00fc\u00edstico galego / Instituto da Lingua Galega; directores: Constantino Garc\u00eda, Ant\u00f3n Santamarina.La Coru\u00f1a: Fundaci\u00f3n Pedro Barri\u00e9 de la Maza, Conde de Fenosa.", "Note on Inflected Infinitive": "The inflected infinitive (see Galego-Portuguese - Portuguese for notes on the cognate form in Portuguese) has the same endings for all verbs, but only the forms for the reflexes of CANTARE are provided."}}
{"type": "variety", "content": {"Dialect": "Galego-Portuguese - Galician - Cualedro", "Linguistic Classification": "Galego-Portuguese - Galician", "Town": "Cualedro", "Region": "Galicia", "Country": "Spain", "Latitude/Longitude": "41\u00b058'59\"N 7\u00b034'59\"W", "Linguistic Date": "mid to late 20th century", "References": "ALGa (1990),Atlas ling\u00fc\u00edstico galego / Instituto da Lingua Galega; directores: Constantino Garc\u00eda, Ant\u00f3n Santamarina.La Coru\u00f1a: Fundaci\u00f3n Pedro Barri\u00e9 de la Maza, Conde de Fenosa.", "Note on Inflected Infinitive": "The inflected infinitive (see Galego-Portuguese - Portuguese for notes on the cognate form in Portuguese) has the same endings for all verbs, but only the forms for the reflexes of CANTARE are provided."}}
{"type": "variety", "content": {"Dialect": "French - Acadian - Baie Sainte-Marie", "Linguistic Classification": "French - Acadian", "Town": "Baie Sainte-Marie", "Region": "Nova Scotia", "Country": "Canada", "Latitude/Longitude": "44\u00b006'00\"N 66\u00b012'00\"W", "Linguistic Date": "late 20th century / early 21st century", "References": "Gesner, B. Edward (1979),\u00c9tude morphosyntaxique du parler acadien de la Baie Sainte-Marie, Nouvelle-\u00c9cosse, Canada.Qu\u00e9bec: CIRB."}}
{"type": "variety", "content": {"Dialect": "Friulian - Western - Maniago", "Linguistic Classification": "Friulian - Western", "Town": "Greci", "Region": "Tulcea", "Country": "Romania", "Latitude/Longitude": "45\u00b012'00\"N 28\u00b015'00\"E", "Linguistic Date": "mid to late 20th-century", "References": "Iliescu, Maria (1972),Le Frioulan \u00e0 partir des dialectes parl\u00e9s en Roumanie.The Hague: Mouton.", "Note on Geographical location": "There is an obvious discrepancy between the linguistic origin of this dialect (western Friuli) and its current geographical location in Romania, which is the result of migrations from Friuli to Romania from the late 19th century (see Iliescu 1972). We have taken this source because Iliescu's work provides a particularly detailed description of Friulian verb morphology, at the same time clearly identifying the point of origin within Friuli of the dialect surveyed.", "Note on Romance future": "The source reports that the Romance future, while known to speakers, is actually little used."}}
{"type": "variety", "content": {"Dialect": "Francoproven\u00e7al - Valaisan - Val d'Illiez", "Linguistic Classification": "Francoproven\u00e7al - Valaisan", "Town": "Illiez", "Region": "Valais", "Country": "Switzerland", "Latitude/Longitude": "46\u00b012'00\"N 6\u00b054'00\"E", "Linguistic Date": "late 19th / early 20th century", "References": "Fankhauser, Franz (1911) Das Patois von Val d\u2019Illiez (Unterwallis). Halle: Karras", "Note on Lacunae": "We have limited ourselves  to representing those forms specified by Fankhauser. It is clear that in many cases the author's intention was that the missing forms should be inferred on the model of other, more fully specified, verbs, but there are some notable inconsistencies in transcription even of these latter (quite possibly  reflecting  what Fankhauser heard), which makes inference of other missing forms particularly hazardous.", "Note on Transcription": "The exact value of some of the phonetic symbols used by Fankhauser is unclear. The IPA transcription used here represents our best attempt to interpret his indications regarding the value of his symbols."}}
{"type": "variety", "content": {"Dialect": "Dalmatian - Vegliote", "Linguistic Classification": "Dalmatian", "Town": "Veglia/Krk", "Region": "", "Country": "Croatia", "Latitude/Longitude": "45\u00b001'00\"N 14\u00b034'00\"E", "Linguistic Date": "late 19th / early 20th century", "References": "Bartoli, Matteo (1906),Das Dalmatische. II: Glossare und Texte \u2014 Grammatik und Lexikon.Wien: H\u00f6lder.", "Note on Nature of the data": "This interpretation is based on Bartoli 1906, and specifically on the speech of the last (semi-)speaker of Vegliote (Tuone Udaina), as presented in sections  7-49 of Bartoli's work. The data are by their nature lacunary, but they are the nearest we can come to a description of this language. For reasons of consistency, we have limited ourselves to the testimony of the last speaker. Some data on other forms, from various additional sources, may be found in Bartoli.", "Note on Linguistic date": "Since the last speaker died in 1898, the 'linguistic date' is, strictly speaking, 'late 19th century' only."}}
{"type": "variety", "content": {"Dialect": "Francoproven\u00e7al - Lyonnais - Vaux", "Linguistic Classification": "Francoproven\u00e7al - Lyonnais", "Town": "Vaux", "Region": "", "Country": "France", "Latitude/Longitude": "46\u00b026'00\"N 4\u00b056'00\"E", "Linguistic Date": "early to mid twentieth century", "References": "Duraffour, A. (1932) Description morphologique avec notes syntaxiques du parler franco-proven\u00e7al de Vaux (Ain) en 1919-1931. Grenoble: Institut phon\u00e9tique de Grenoble.", "Note on Past participle": "This dialect has a limited number of additional 'adjectival participles', with apparently stative value, for verbs of the kind that continues the Latin first conjugation, whose form indicates original stress on the lexical root. Thus past participle pas\u0251, vs. 'adjectival' pasa.", "Note on Imperfect indicative": "Older generations have an alternative set of forms displayed here as the second-given forms for the verbs CANTARE, *kaptjare, UENDERE, DEBERE, FINIRE. This second type is reportedly more common among continuants of Latin II, III and IV conjugation verbs than in continuants of the first conjugation. The alternative forms are 'rare' in the 1sg. and 2sg., less rare in the 3sg and even less rare in the 1pl. and 3pl. See Duraffour (1932:62f.) for a discussion of some semantic and functional distinctions between the rival forms."}}
{"type": "variety", "content": {"Dialect": "Catalan - Western - Valenci\u00e0", "Linguistic Classification": "Catalan - Western - Valencian", "Town": "Val\u00e8ncia", "Region": "Comunitat Valenciana", "Country": "Spain", "Latitude/Longitude": "39\u00b028'00\"N 0\u00b022'00\"W", "Linguistic Date": "late 19th / early 20th century", "References": "Perea, Maria-Pilar (2005),Dades dialectals. Antoni M. Alcover.Palma de Mallorca: Conselleria d\u2019Educaci\u00f3 i Cultura.Govern de les Illes Balears, CD-ROM edition."}}
