ID,Description,Name
INF,"This label is sanctioned by usage across Romance and also for the historically underlying set of Latin forms. It is a non-finite form (in Latin, usually comprising the verb stem + re) implicated in a range of grammatical functions and often having clausal functions. By convention among Romance linguists it is the 'citation form' for verb lexemes. Strictly speaking, the Romance infinitives continue the Latin imperfective infinitive, the old perfective infinitive being extinct.",Infinitive
GER,"The Romance gerund is a (usually invariant) form continuing the Latin gerund, a form of verbal noun, and in Romance it usually has circumstantial clausal functions ('while / by doing something') compatible with an origin in the ablative.",Gerund
PST-PTCP,"The Latin past participle was, broadly speaking, a verbal resultative adjective, with a meaning roughly paraphrasable as 'in the state resulting from the action / state expressed by the verb'. It is continued in Romance, although the functional load associated with it has greatly increased, as a consequence of the many Romance morphosyntactic innovations, including new perfective verb forms, comprising auxiliary verb + past participle, a type with only a very restricted distribution in Latin. Verbs which (usually for reasons associated with their lexical semantics) lacked a past participle in Latin have often come under pressure to create a past participle in order to provide forms for the innovatory 'auxiliary + past participle' constructions. Therefore, not every 'past participle' in Romance (for example, that of reflexes of esse 'be') has an antecedent in Classical Latin. As in Latin, all Romance past participles inflect for number and gender, although under circumstances which vary considerably from variety to variety. In so far as these inflectional properties belong with nominal morphology, we have normally specified only the 'masculine singular' form of the Romance past participles.",Past participle
PRS-IND,This label is consecrated by usage across Romance and also for the historically underlying set of Latin forms.,Present indicative
PRS-SBJV,"As for the 'Present indicative', except that the label is less appropriate for Daco-Romanian, where the relevant forms have no particular association with tense (there is one, tenseless, synthetic form of the subjunctive, continuing the Latin present subjunctive).",Present subjunctive
IMPERF-IND,This label is used across Romance for the past tense imperfective indicative forms deriving from the Latin past tense imperfective indicative forms.,Imperfect indicative
CONT_LAT_PLUP-IND,"This form (more precisely, the 'continuant of the Latin past perfective indicative') survives or survived in many 'western' Romance varieties and Italo-Romance (possibly also in Dalmatian). It manifests a variety of functions in Romance (pluperfect in Portuguese and medieval Spanish, imperfect subjunctive in Spanish, conditional in some Italo-Romance and Gallo-Romance varieties), so that reference by means of an 'etymological' label seems most convenient.",Continuant of Latin pluperfect indicative
CONT_LAT_PLUP-SBJV,"This form (more precisely, the 'continuant of the Latin past perfective subjunctive') survives or survived in virtually all Romance varieties. The outcome in most areas is a form known as the 'imperfect subjunctive', retaining functions associated with the subjunctive but abandoning the associations of perfectivity/anteriority of its Latin antecedent. In Daco-Romance, however, it is the subjunctive functions that are lost, while a meaning of past anteriority is broadly conserved. Again, reference by means of an 'historical' label seems most convenient cross-linguistically.",Continuant of Latin pluperfect subjunctive
CONT_LAT_FUT-PRF_PRF-SBJV,"More precisely, this form is the 'continuant of Latin future perfective indicative / past perfective subjunctive'. It is generally accepted to be a conflation of two sets of Latin tense-aspect-mood forms which were already formally conflated, in part, in Classical Latin. They were homophonous, with the exception of the first person singular (cf. pst.pfv.sbjv and fut.pfv 3sg fecerit, dederit, portauerit vs pst.pfv.sbjv 1sg fecerim, dederim, portauerim; pst.fut.pfv 1sg fecero, dedero, portauero). It is certainly the case that no Romance language shows any sign of differentiating the continuants of the future perfect from those of the perfect subjunctive, and the fact that the Spanish and Portuguese outcomes are a 'future subjunctive', suggests functional conflation as well. These Ibero-Romance forms are clearly cognate with the Vegliote future, and the Daco-Romance synthetic conditional (still surviving in Istro-Romanian and Aromanian). See further Maiden (2009).",Continuant of Latin future perfect / perfect subjunctive
PRET,"This form could equally have been labelled 'continuant of the Latin present perfective indicative'. 'Preterite' is the term used to describe this form in descriptions of a number of Romance languages, and is therefore used here. The form survives in most Romance varieties to this day and is attested in all varieties of which we have historical records. Its typical function across the Romance languages is that of indicating a completed ('perfective') action or state in the past; but in Acadian French, for example, the form labelled 'preterite' has assumed a different function.",Preterite
ROM_FUT,"[of Romance future and Romance conditional] These labels refer to two related classes of synthetic word-forms attested across many 'western' Romance languages together which much of Italo-Romance, without precedent in Classical Latin but formed historically from a reflex of the Latin infinitive followed by an originally auxiliary form of habere 'to have', in the present indicative in the case of the 'Romance future', and in a past tense form (usually imperfect indicative, but sometimes preterite in Italo-Romance) in the 'Romance conditional'. Both forms (at least originally) indicated futurity (respectively, in relation to the time of speaking and in relation to a reference time in the past). The conditional is also a form used in counterfactual constructions (e.g., 'If he were here he would do it').",Romance future
ROM_COND,"These labels refer to two related classes of synthetic word-forms attested across many 'western' Romance languages together which much of Italo-Romance, without precedent in Classical Latin but formed historically from a reflex of the Latin infinitive followed by an originally auxiliary form of habere 'to have', in the present indicative in the case of the 'Romance future', and in a past tense form (usually imperfect indicative, but sometimes preterite in Italo-Romance) in the 'Romance conditional'. Both forms (at least originally) indicated futurity (respectively, in relation to the time of speaking and in relation to a reference time in the past). The conditional is also a form used in counterfactual constructions (e.g., 'If he were here he would do it').",Romance conditional
1SG,first person singular,1sg
2SG,second person singular,2sg
3SG,third person singular,3sg
1PL,first person plural,1pl
2PL,second person plural,2pl
3PL,third person plural,3pl
CONT_LAT_IMPERF-SBJV,"Two cases in point are varieties of Sardinian and Galego-Portuguese. In the former it appears that, uniquely among modern Romance languages, there survives a Continuant of Latin imperfect subjunctive, and this category has accordingly been added for the relevant Sardinian varieties.",continuant of latin imperfect subjunctive
GL_INFL-INF,,galician inflected infinitive
IMP,,imperative
INFL_INF,,inflected infinitive
LONG_INF,,long infinitive
PT_INF,,portuguese inflected infinitive
PROX-IMPERF,,proximal imperfect
RSH_I-COND,,romansh indirect conditional
RSH_I-IMPERF-SUBJ,,romansh indirect imperfect subjunctive
ROM_FUT_2,,second romance future
